Containers:
  [+] MainContainer:
   |            ID: 0x0000000000000000
   |        Bounds: IsValid=true, Min=(X=-1638400.000 Y=-1638400.000 Z=-1638400.000), Max=(X=1638400.000 Y=1638400.000 Z=1638400.000)
   |     Transform: 0.000000,0.000000,0.000000|0.000000,0.000000,-0.000000|1.000000,1.000000,1.000000
   |     Container: /Game/Main
   |  ActorDescs:
   |      - Guid:03920DF94EEFC9F86CC66185D32A3DA1 Class:StaticMeshActor Name:StaticMeshActor_UAID_A4AE111137DC54FB00_1240666663 SpatiallyLoaded:true Bounds:IsValid=true, Min=(X=-1638400.000 Y=-1638400.000 Z=-1638400.000), Max=(X=1638400.000 Y=1638400.000 Z=1638400.000) RuntimeGrid:None EditorOnly:false LevelBoundsRelevant:true HLODRelevant:true FolderPath:Lighting FolderGuid:B7E9BD5B45A652654791988DEF54CCEB Parent:00000000000000000000000000000000
   |      - Guid:0550E94B443D34A7B2695084EF73CA8E Class:LandscapeStreamingProxy Name:LandscapeStreamingProxy_D7T4VF4LBP34PHV9XOEVM5TIG_1_7_5_0 SpatiallyLoaded:true Bounds:IsValid=true, Min=(X=75600.000 Y=25200.000 Z=5872.656), Max=(X=100800.000 Y=50400.000 Z=13596.094) RuntimeGrid:None EditorOnly:false LevelBoundsRelevant:true HLODRelevant:true FolderPath:None FolderGuid:00000000000000000000000000000000 Parent:00000000000000000000000000000000
   |      - Guid:0D7DFFA243DD16C5B1F9FBB6ECBB6CA1 Class:LandscapeStreamingProxy Name:LandscapeStreamingProxy_D7T4VF4LBP34PHV9XOEVM5TIG_1_7_7_0 SpatiallyLoaded:true Bounds:IsValid=true, Min=(X=75600.000 Y=75600.000 Z=8727.344), Max=(X=100800.000 Y=100800.000 Z=12871.094) RuntimeGrid:None EditorOnly:false LevelBoundsRelevant:true HLODRelevant:true FolderPath:None FolderGuid:00000000000000000000000000000000 Parent:00000000000000000000000000000000
   |      - Guid:0DDC8FEF4BE2623E6DE4258EC6ECD3DC Class:LandscapeStreamingProxy Name:LandscapeStreamingProxy_D7T4VF4LBP34PHV9XOEVM5TIG_1_4_7_0 SpatiallyLoaded:true Bounds:IsValid=true, Min=(X=0.000 Y=75600.000 Z=2080.469), Max=(X=25200.000 Y=100800.000 Z=6055.469) RuntimeGrid:None EditorOnly:false LevelBoundsRelevant:true HLODRelevant:true FolderPath:None FolderGuid:00000000000000000000000000000000 Parent:00000000000000000000000000000000
   |      - Guid:0F50219442076B159B714299B6BD4A95 Class:LandscapeStreamingProxy Name:LandscapeStreamingProxy_D7T4VF4LBP34PHV9XOEVM5TIG_1_2_0_0 SpatiallyLoaded:true Bounds:IsValid=true, Min=(X=-50400.000 Y=-100800.000 Z=6572.656), Max=(X=-25200.000 Y=-75600.000 Z=11941.406) RuntimeGrid:None EditorOnly:false LevelBoundsRelevant:true HLODRelevant:true FolderPath:None FolderGuid:00000000000000000000000000000000 Parent:00000000000000000000000000000000
   |      - Guid:1132963840A0BF90C8F6FB9C03D28EDC Class:LandscapeStreamingProxy Name:LandscapeStreamingProxy_D7T4VF4LBP34PHV9XOEVM5TIG_1_1_4_0 SpatiallyLoaded:true Bounds:IsValid=true, Min=(X=-75600.000 Y=0.000 Z=7.031), Max=(X=-50400.000 Y=25200.000 Z=4389.844) RuntimeGrid:None EditorOnly:false LevelBoundsRelevant:true HLODRelevant:true FolderPath:None FolderGuid:00000000000000000000000000000000 Parent:00000000000000000000000000000000
   |      - Guid:131E1DA54A7AF6074C0715B190AA5DAB Class:WorldPartitionHLOD Name:HLOD0_Instancing_000000006f064fc3 SpatiallyLoaded:false Bounds:IsValid=true, Min=(X=-102400.000 Y=0.000 Z=-100.000), Max=(X=0.000 Y=102400.000 Z=14989.844) RuntimeGrid:None EditorOnly:false LevelBoundsRelevant:true HLODRelevant:true FolderPath:HLOD/HLOD0 FolderGuid:5D23A82E411A5CFDF61C6285B0703174 Parent:00000000000000000000000000000000
   |      - Guid:146D3E3040BAFC1FB8BF4ABC272DA94F Class:LandscapeStreamingProxy Name:LandscapeStreamingProxy_D7T4VF4LBP34PHV9XOEVM5TIG_1_5_2_0 SpatiallyLoaded:true Bounds:IsValid=true, Min=(X=25200.000 Y=-50400.000 Z=0.781), Max=(X=50400.000 Y=-25200.000 Z=6920.312) RuntimeGrid:None EditorOnly:false LevelBoundsRelevant:true HLODRelevant:true FolderPath:None FolderGuid:00000000000000000000000000000000 Parent:00000000000000000000000000000000
   |      - Guid:1AF28111448240DDAB2EABBF2988B403 Class:LandscapeStreamingProxy Name:LandscapeStreamingProxy_D7T4VF4LBP34PHV9XOEVM5TIG_1_1_0_0 SpatiallyLoaded:true Bounds:IsValid=true, Min=(X=-75600.000 Y=-100800.000 Z=6608.594), Max=(X=-50400.000 Y=-75600.000 Z=12658.594) RuntimeGrid:None EditorOnly:false LevelBoundsRelevant:true HLODRelevant:true FolderPath:None FolderGuid:00000000000000000000000000000000 Parent:00000000000000000000000000000000
   |      - Guid:1C18DE7D494342D016B686A01B18F71D Class:LandscapeStreamingProxy Name:LandscapeStreamingProxy_D7T4VF4LBP34PHV9XOEVM5TIG_1_2_3_0 SpatiallyLoaded:true Bounds:IsValid=true, Min=(X=-50400.000 Y=-25200.000 Z=0.000), Max=(X=-25200.000 Y=0.000 Z=1038.281) RuntimeGrid:None EditorOnly:false LevelBoundsRelevant:true HLODRelevant:true FolderPath:None FolderGuid:00000000000000000000000000000000 Parent:00000000000000000000000000000000
   |      - Guid:1D3D26F04B6DC10BEFB5B69E5CF914C8 Class:VolumetricCloud Name:VolumetricCloud_UAID_A85E45CFE40401D200_1470381760 SpatiallyLoaded:false Bounds:IsValid=true, Min=(X=0.000 Y=0.000 Z=0.000), Max=(X=0.000 Y=0.000 Z=0.000) RuntimeGrid:None EditorOnly:false LevelBoundsRelevant:false HLODRelevant:false FolderPath:Lighting FolderGuid:B7E9BD5B45A652654791988DEF54CCEB Parent:00000000000000000000000000000000
   |      - Guid:1DE8D7AC4103A2EABA11649C7FCF8ACA Class:SkyLight Name:SkyLight_UAID_A85E45CFE40401D200_1470380759 SpatiallyLoaded:false Bounds:IsValid=true, Min=(X=0.000 Y=0.000 Z=10.000), Max=(X=0.000 Y=0.000 Z=10.000) RuntimeGrid:None EditorOnly:false LevelBoundsRelevant:false HLODRelevant:false FolderPath:Lighting FolderGuid:B7E9BD5B45A652654791988DEF54CCEB Parent:00000000000000000000000000000000
   |      - Guid:1E7A6AD4437B2258C36CB490664720EA Class:LandscapeStreamingProxy Name:LandscapeStreamingProxy_D7T4VF4LBP34PHV9XOEVM5TIG_1_5_3_0 SpatiallyLoaded:true Bounds:IsValid=true, Min=(X=25200.000 Y=-25200.000 Z=0.000), Max=(X=50400.000 Y=0.000 Z=3310.156) RuntimeGrid:None EditorOnly:false LevelBoundsRelevant:true HLODRelevant:true FolderPath:None FolderGuid:00000000000000000000000000000000 Parent:00000000000000000000000000000000
   |      - Guid:205A15C54B0D28A9342B5D9A4F94012D Class:PlayerStart Name:PlayerStartBP_C_UAID_D8BBC1B2D2B8B32601_2045772791 SpatiallyLoaded:false Bounds:IsValid=true, Min=(X=-30.000 Y=-40.000 Z=980.000), Max=(X=50.000 Y=40.000 Z=1164.000) RuntimeGrid:None EditorOnly:false LevelBoundsRelevant:true HLODRelevant:false FolderPath:None FolderGuid:00000000000000000000000000000000 Parent:00000000000000000000000000000000
   |      - Guid:218E3B124735712D7EF272B4FB8E7FF6 Class:Landscape Name:Landscape_UAID_A85E45CFE404FBD100_1221515703 SpatiallyLoaded:false Bounds:IsValid=true, Min=(X=-100800.000 Y=-100800.000 Z=100.000), Max=(X=-100800.000 Y=-100800.000 Z=100.000) RuntimeGrid:None EditorOnly:false LevelBoundsRelevant:true HLODRelevant:false FolderPath:None FolderGuid:00000000000000000000000000000000 Parent:00000000000000000000000000000000
   |      - Guid:2347681E4EBE5CEECBE9DBBC1DBA11C1 Class:LandscapeStreamingProxy Name:LandscapeStreamingProxy_D7T4VF4LBP34PHV9XOEVM5TIG_1_1_6_0 SpatiallyLoaded:true Bounds:IsValid=true, Min=(X=-75600.000 Y=50400.000 Z=3219.531), Max=(X=-50400.000 Y=75600.000 Z=9172.656) RuntimeGrid:None EditorOnly:false LevelBoundsRelevant:true HLODRelevant:true FolderPath:None FolderGuid:00000000000000000000000000000000 Parent:00000000000000000000000000000000
   |      - Guid:2CE12F874AA39D020A0F4BA5739BD305 Class:SkyAtmosphere Name:SkyAtmosphere_UAID_A85E45CFE40401D200_1470382762 SpatiallyLoaded:false Bounds:IsValid=true, Min=(X=0.000 Y=0.000 Z=0.000), Max=(X=0.000 Y=0.000 Z=0.000) RuntimeGrid:None EditorOnly:false LevelBoundsRelevant:false HLODRelevant:false FolderPath:Lighting FolderGuid:B7E9BD5B45A652654791988DEF54CCEB Parent:00000000000000000000000000000000
   |      - Guid:2D25D44D481345FBF8570EB1B7BD1A3E Class:LandscapeStreamingProxy Name:LandscapeStreamingProxy_D7T4VF4LBP34PHV9XOEVM5TIG_1_0_6_0 SpatiallyLoaded:true Bounds:IsValid=true, Min=(X=-100800.000 Y=50400.000 Z=5450.781), Max=(X=-75600.000 Y=75600.000 Z=11130.469) RuntimeGrid:None EditorOnly:false LevelBoundsRelevant:true HLODRelevant:true FolderPath:None FolderGuid:00000000000000000000000000000000 Parent:00000000000000000000000000000000
   |      - Guid:2DB3FDE64E76043E654E15809FAF173E Class:LandscapeStreamingProxy Name:LandscapeStreamingProxy_D7T4VF4LBP34PHV9XOEVM5TIG_1_7_3_0 SpatiallyLoaded:true Bounds:IsValid=true, Min=(X=75600.000 Y=-25200.000 Z=5280.469), Max=(X=100800.000 Y=0.000 Z=11586.719) RuntimeGrid:None EditorOnly:false LevelBoundsRelevant:true HLODRelevant:true FolderPath:None FolderGuid:00000000000000000000000000000000 Parent:00000000000000000000000000000000
   |      - Guid:2ECDB0F14C38AB1F3D274DAFA9305640 Class:LandscapeStreamingProxy Name:LandscapeStreamingProxy_D7T4VF4LBP34PHV9XOEVM5TIG_1_0_3_0 SpatiallyLoaded:true Bounds:IsValid=true, Min=(X=-100800.000 Y=-25200.000 Z=966.406), Max=(X=-75600.000 Y=0.000 Z=9202.344) RuntimeGrid:None EditorOnly:false LevelBoundsRelevant:true HLODRelevant:true FolderPath:None FolderGuid:00000000000000000000000000000000 Parent:00000000000000000000000000000000
   |      - Guid:31A5522843888425734F278F802A023B Class:LandscapeStreamingProxy Name:LandscapeStreamingProxy_D7T4VF4LBP34PHV9XOEVM5TIG_1_3_2_0 SpatiallyLoaded:true Bounds:IsValid=true, Min=(X=-25200.000 Y=-50400.000 Z=-0.781), Max=(X=0.000 Y=-25200.000 Z=1993.750) RuntimeGrid:None EditorOnly:false LevelBoundsRelevant:true HLODRelevant:true FolderPath:None FolderGuid:00000000000000000000000000000000 Parent:00000000000000000000000000000000
   |      - Guid:32DDDAF945E661594B761F842823F664 Class:LandscapeStreamingProxy Name:LandscapeStreamingProxy_D7T4VF4LBP34PHV9XOEVM5TIG_1_7_0_0 SpatiallyLoaded:true Bounds:IsValid=true, Min=(X=75600.000 Y=-100800.000 Z=7522.656), Max=(X=100800.000 Y=-75600.000 Z=13553.906) RuntimeGrid:None EditorOnly:false LevelBoundsRelevant:true HLODRelevant:true FolderPath:None FolderGuid:00000000000000000000000000000000 Parent:00000000000000000000000000000000
   |      - Guid:39F0C4EA4AC6F620731F8A985F1BA794 Class:LandscapeStreamingProxy Name:LandscapeStreamingProxy_D7T4VF4LBP34PHV9XOEVM5TIG_1_0_4_0 SpatiallyLoaded:true Bounds:IsValid=true, Min=(X=-100800.000 Y=0.000 Z=847.656), Max=(X=-75600.000 Y=25200.000 Z=9271.094) RuntimeGrid:None EditorOnly:false LevelBoundsRelevant:true HLODRelevant:true FolderPath:None FolderGuid:00000000000000000000000000000000 Parent:00000000000000000000000000000000
   |      - Guid:3E25F0A8458FB2B2C4FDCCBEFBB79D7C Class:LandscapeStreamingProxy Name:LandscapeStreamingProxy_D7T4VF4LBP34PHV9XOEVM5TIG_1_7_6_0 SpatiallyLoaded:true Bounds:IsValid=true, Min=(X=75600.000 Y=50400.000 Z=9205.469), Max=(X=100800.000 Y=75600.000 Z=14989.844) RuntimeGrid:None EditorOnly:false LevelBoundsRelevant:true HLODRelevant:true FolderPath:None FolderGuid:00000000000000000000000000000000 Parent:00000000000000000000000000000000
   |      - Guid:3F36F6E343853B5EFB38DF82C9F47BC1 Class:LandscapeStreamingProxy Name:LandscapeStreamingProxy_D7T4VF4LBP34PHV9XOEVM5TIG_1_3_6_0 SpatiallyLoaded:true Bounds:IsValid=true, Min=(X=-25200.000 Y=50400.000 Z=189.062), Max=(X=0.000 Y=75600.000 Z=5252.344) RuntimeGrid:None EditorOnly:false LevelBoundsRelevant:true HLODRelevant:true FolderPath:None FolderGuid:00000000000000000000000000000000 Parent:00000000000000000000000000000000
   |      - Guid:44552B794C9EAAFB1A13C79B58B5B067 Class:FoodBase Name:FoodBP_C_UAID_D8BBC1B2D2B8E62701_1948041824 SpatiallyLoaded:true Bounds:IsValid=true, Min=(X=-460.000 Y=-580.000 Z=50.000), Max=(X=-360.000 Y=-480.000 Z=150.000) RuntimeGrid:None EditorOnly:false LevelBoundsRelevant:true HLODRelevant:false FolderPath:None FolderGuid:00000000000000000000000000000000 Parent:00000000000000000000000000000000
   |      - Guid:46A29806469824C0618DAD88DBCE1F7B Class:LandscapeStreamingProxy Name:LandscapeStreamingProxy_D7T4VF4LBP34PHV9XOEVM5TIG_1_2_2_0 SpatiallyLoaded:true Bounds:IsValid=true, Min=(X=-50400.000 Y=-50400.000 Z=0.000), Max=(X=-25200.000 Y=-25200.000 Z=5260.156) RuntimeGrid:None EditorOnly:false LevelBoundsRelevant:true HLODRelevant:true FolderPath:None FolderGuid:00000000000000000000000000000000 Parent:00000000000000000000000000000000
   |      - Guid:48171C29416CA15E517160B48FB3B71B Class:FoodBase Name:FoodBP_C_UAID_D8BBC1B2D2B8E62701_1940626823 SpatiallyLoaded:true Bounds:IsValid=true, Min=(X=110.000 Y=220.000 Z=50.000), Max=(X=210.000 Y=320.000 Z=150.000) RuntimeGrid:None EditorOnly:false LevelBoundsRelevant:true HLODRelevant:false FolderPath:None FolderGuid:00000000000000000000000000000000 Parent:00000000000000000000000000000000
   |      - Guid:4D9AE693421FB4AF0B84F3ABB4069600 Class:LandscapeStreamingProxy Name:LandscapeStreamingProxy_D7T4VF4LBP34PHV9XOEVM5TIG_1_4_0_0 SpatiallyLoaded:true Bounds:IsValid=true, Min=(X=0.000 Y=-100800.000 Z=4621.094), Max=(X=25200.000 Y=-75600.000 Z=11314.844) RuntimeGrid:None EditorOnly:false LevelBoundsRelevant:true HLODRelevant:true FolderPath:None FolderGuid:00000000000000000000000000000000 Parent:00000000000000000000000000000000
   |      - Guid:5467074D485A504DB8C24CAD0B80AB77 Class:LandscapeStreamingProxy Name:LandscapeStreamingProxy_D7T4VF4LBP34PHV9XOEVM5TIG_1_1_2_0 SpatiallyLoaded:true Bounds:IsValid=true, Min=(X=-75600.000 Y=-50400.000 Z=1038.281), Max=(X=-50400.000 Y=-25200.000 Z=8925.781) RuntimeGrid:None EditorOnly:false LevelBoundsRelevant:true HLODRelevant:true FolderPath:None FolderGuid:00000000000000000000000000000000 Parent:00000000000000000000000000000000
   |      - Guid:565205A14B72B1C79932C09B8AA708FB Class:LandscapeStreamingProxy Name:LandscapeStreamingProxy_D7T4VF4LBP34PHV9XOEVM5TIG_1_2_7_0 SpatiallyLoaded:true Bounds:IsValid=true, Min=(X=-50400.000 Y=75600.000 Z=5080.469), Max=(X=-25200.000 Y=100800.000 Z=13166.406) RuntimeGrid:None EditorOnly:false LevelBoundsRelevant:true HLODRelevant:true FolderPath:None FolderGuid:00000000000000000000000000000000 Parent:00000000000000000000000000000000
   |      - Guid:574CE62A48DF7B36C0F323B225EAA6D6 Class:WorldPartitionHLOD Name:HLOD0_Instancing_00000000d580238e SpatiallyLoaded:false Bounds:IsValid=true, Min=(X=0.000 Y=0.000 Z=-100.000), Max=(X=51200.000 Y=51200.000 Z=14989.844) RuntimeGrid:None EditorOnly:false LevelBoundsRelevant:true HLODRelevant:true FolderPath:HLOD/HLOD0 FolderGuid:5D23A82E411A5CFDF61C6285B0703174 Parent:00000000000000000000000000000000
   |      - Guid:58E9C3B64D12DE671F037881A2E880D7 Class:LandscapeStreamingProxy Name:LandscapeStreamingProxy_D7T4VF4LBP34PHV9XOEVM5TIG_1_2_1_0 SpatiallyLoaded:true Bounds:IsValid=true, Min=(X=-50400.000 Y=-75600.000 Z=1993.750), Max=(X=-25200.000 Y=-50400.000 Z=8566.406) RuntimeGrid:None EditorOnly:false LevelBoundsRelevant:true HLODRelevant:true FolderPath:None FolderGuid:00000000000000000000000000000000 Parent:00000000000000000000000000000000
   |      - Guid:59C0CF754809E4A615B6B893483C5902 Class:LandscapeStreamingProxy Name:LandscapeStreamingProxy_D7T4VF4LBP34PHV9XOEVM5TIG_1_0_1_0 SpatiallyLoaded:true Bounds:IsValid=true, Min=(X=-100800.000 Y=-75600.000 Z=5449.219), Max=(X=-75600.000 Y=-50400.000 Z=8761.719) RuntimeGrid:None EditorOnly:false LevelBoundsRelevant:true HLODRelevant:true FolderPath:None FolderGuid:00000000000000000000000000000000 Parent:00000000000000000000000000000000
   |      - Guid:5C483AD7457FCF8C55871D883FCE7EAF Class:LandscapeStreamingProxy Name:LandscapeStreamingProxy_D7T4VF4LBP34PHV9XOEVM5TIG_1_6_1_0 SpatiallyLoaded:true Bounds:IsValid=true, Min=(X=50400.000 Y=-75600.000 Z=5639.844), Max=(X=75600.000 Y=-50400.000 Z=10830.469) RuntimeGrid:None EditorOnly:false LevelBoundsRelevant:true HLODRelevant:true FolderPath:None FolderGuid:00000000000000000000000000000000 Parent:00000000000000000000000000000000
   |      - Guid:5CF32A5C4FACC6A24EBDC4858E818BDB Class:WorldPartitionHLOD Name:HLOD0_Instancing_00000000b0cde8dc SpatiallyLoaded:false Bounds:IsValid=true, Min=(X=-51200.000 Y=-102400.000 Z=-100.000), Max=(X=0.000 Y=-51200.000 Z=14989.844) RuntimeGrid:None EditorOnly:false LevelBoundsRelevant:true HLODRelevant:true FolderPath:HLOD/HLOD0 FolderGuid:5D23A82E411A5CFDF61C6285B0703174 Parent:00000000000000000000000000000000
   |      - Guid:64972DB740F13CE5190779A0B9CBA4EA Class:LandscapeStreamingProxy Name:LandscapeStreamingProxy_D7T4VF4LBP34PHV9XOEVM5TIG_1_1_5_0 SpatiallyLoaded:true Bounds:IsValid=true, Min=(X=-75600.000 Y=25200.000 Z=131.250), Max=(X=-50400.000 Y=50400.000 Z=8019.531) RuntimeGrid:None EditorOnly:false LevelBoundsRelevant:true HLODRelevant:true FolderPath:None FolderGuid:00000000000000000000000000000000 Parent:00000000000000000000000000000000
   |      - Guid:65CFA47F4E3971B536746DBA4BC8BB48 Class:WorldPartitionHLOD Name:HLOD0_Instancing_000000001344ec12 SpatiallyLoaded:false Bounds:IsValid=true, Min=(X=-102400.000 Y=-51200.000 Z=-100.000), Max=(X=-51200.000 Y=0.000 Z=14989.844) RuntimeGrid:None EditorOnly:false LevelBoundsRelevant:true HLODRelevant:true FolderPath:HLOD/HLOD0 FolderGuid:5D23A82E411A5CFDF61C6285B0703174 Parent:00000000000000000000000000000000
   |      - Guid:6845AB9B4CDD0C0D192617A71808D441 Class:WorldPartitionHLOD Name:HLOD0_Instancing_00000000db5f9a5d SpatiallyLoaded:false Bounds:IsValid=true, Min=(X=0.000 Y=0.000 Z=-100.000), Max=(X=25600.000 Y=25600.000 Z=14989.844) RuntimeGrid:None EditorOnly:false LevelBoundsRelevant:true HLODRelevant:true FolderPath:HLOD/HLOD0 FolderGuid:5D23A82E411A5CFDF61C6285B0703174 Parent:00000000000000000000000000000000
   |      - Guid:6C2376EA491F5E3D9DCA3082F3815005 Class:WorldPartitionHLOD Name:HLOD0_Instancing_00000000c6baa641 SpatiallyLoaded:false Bounds:IsValid=true, Min=(X=-102400.000 Y=0.000 Z=-100.000), Max=(X=-51200.000 Y=51200.000 Z=14989.844) RuntimeGrid:None EditorOnly:false LevelBoundsRelevant:true HLODRelevant:true FolderPath:HLOD/HLOD0 FolderGuid:5D23A82E411A5CFDF61C6285B0703174 Parent:00000000000000000000000000000000
   |      - Guid:6F77DF4E483D4B5A103A83BF8FB30F3A Class:LandscapeStreamingProxy Name:LandscapeStreamingProxy_D7T4VF4LBP34PHV9XOEVM5TIG_1_6_7_0 SpatiallyLoaded:true Bounds:IsValid=true, Min=(X=50400.000 Y=75600.000 Z=7785.156), Max=(X=75600.000 Y=100800.000 Z=11791.406) RuntimeGrid:None EditorOnly:false LevelBoundsRelevant:true HLODRelevant:true FolderPath:None FolderGuid:00000000000000000000000000000000 Parent:00000000000000000000000000000000
   |      - Guid:707D0D104A1A6DBFBBD050AD016E1BA7 Class:LandscapeStreamingProxy Name:LandscapeStreamingProxy_D7T4VF4LBP34PHV9XOEVM5TIG_1_4_4_0 SpatiallyLoaded:true Bounds:IsValid=true, Min=(X=0.000 Y=0.000 Z=-100.000), Max=(X=25200.000 Y=25200.000 Z=100.000) RuntimeGrid:None EditorOnly:false LevelBoundsRelevant:true HLODRelevant:true FolderPath:None FolderGuid:00000000000000000000000000000000 Parent:00000000000000000000000000000000
   |      - Guid:7A0EC77F484EE05319192BB2154A9579 Class:FoodBase Name:FoodBP_C_UAID_D8BBC1B2D2B8E62701_1952645825 SpatiallyLoaded:true Bounds:IsValid=true, Min=(X=530.000 Y=-580.000 Z=50.000), Max=(X=630.000 Y=-480.000 Z=150.000) RuntimeGrid:None EditorOnly:false LevelBoundsRelevant:true HLODRelevant:false FolderPath:None FolderGuid:00000000000000000000000000000000 Parent:00000000000000000000000000000000
   |      - Guid:7BC0A65F405309A1090C36A2E583CAAC Class:WorldDataLayers Name:WorldDataLayers SpatiallyLoaded:false Bounds:IsValid=true, Min=(X=0.000 Y=0.000 Z=0.000), Max=(X=0.000 Y=0.000 Z=0.000) RuntimeGrid:None EditorOnly:false LevelBoundsRelevant:false HLODRelevant:false FolderPath:None FolderGuid:00000000000000000000000000000000 Parent:00000000000000000000000000000000
   |      - Guid:7DCB8EFE498FFD99EE494192AD474A2A Class:LandscapeStreamingProxy Name:LandscapeStreamingProxy_D7T4VF4LBP34PHV9XOEVM5TIG_1_2_4_0 SpatiallyLoaded:true Bounds:IsValid=true, Min=(X=-50400.000 Y=0.000 Z=0.000), Max=(X=-25200.000 Y=25200.000 Z=164.844) RuntimeGrid:None EditorOnly:false LevelBoundsRelevant:true HLODRelevant:true FolderPath:None FolderGuid:00000000000000000000000000000000 Parent:00000000000000000000000000000000
   |      - Guid:7E8DF15942F955BCCAB7DB92DF810682 Class:LandscapeStreamingProxy Name:LandscapeStreamingProxy_D7T4VF4LBP34PHV9XOEVM5TIG_1_6_5_0 SpatiallyLoaded:true Bounds:IsValid=true, Min=(X=50400.000 Y=25200.000 Z=2264.062), Max=(X=75600.000 Y=50400.000 Z=9232.031) RuntimeGrid:None EditorOnly:false LevelBoundsRelevant:true HLODRelevant:true FolderPath:None FolderGuid:00000000000000000000000000000000 Parent:00000000000000000000000000000000
   |      - Guid:82111EBA4245874D247823848B4F1385 Class:LandscapeStreamingProxy Name:LandscapeStreamingProxy_D7T4VF4LBP34PHV9XOEVM5TIG_1_4_3_0 SpatiallyLoaded:true Bounds:IsValid=true, Min=(X=0.000 Y=-25200.000 Z=-100.000), Max=(X=25200.000 Y=0.000 Z=100.000) RuntimeGrid:None EditorOnly:false LevelBoundsRelevant:true HLODRelevant:true FolderPath:None FolderGuid:00000000000000000000000000000000 Parent:00000000000000000000000000000000
   |      - Guid:83CD9E0B4741741D139767A8EC49B809 Class:LandscapeStreamingProxy Name:LandscapeStreamingProxy_D7T4VF4LBP34PHV9XOEVM5TIG_1_0_2_0 SpatiallyLoaded:true Bounds:IsValid=true, Min=(X=-100800.000 Y=-50400.000 Z=5807.031), Max=(X=-75600.000 Y=-25200.000 Z=9500.781) RuntimeGrid:None EditorOnly:false LevelBoundsRelevant:true HLODRelevant:true FolderPath:None FolderGuid:00000000000000000000000000000000 Parent:00000000000000000000000000000000
   |      - Guid:84FEC84F46DABCF34246D5BB6C0DE9E5 Class:WorldPartitionHLOD Name:HLOD0_Instancing_00000000923d253d SpatiallyLoaded:false Bounds:IsValid=true, Min=(X=-51200.000 Y=-51200.000 Z=-100.000), Max=(X=0.000 Y=0.000 Z=14989.844) RuntimeGrid:None EditorOnly:false LevelBoundsRelevant:true HLODRelevant:true FolderPath:HLOD/HLOD0 FolderGuid:5D23A82E411A5CFDF61C6285B0703174 Parent:00000000000000000000000000000000
   |      - Guid:8565528941BD1FCDEDCCC3B5D3FC7754 Class:WorldPartitionHLOD Name:HLOD0_Instancing_00000000d190b65e SpatiallyLoaded:false Bounds:IsValid=true, Min=(X=0.000 Y=-102400.000 Z=-100.000), Max=(X=102400.000 Y=0.000 Z=14989.844) RuntimeGrid:None EditorOnly:false LevelBoundsRelevant:true HLODRelevant:true FolderPath:HLOD/HLOD0 FolderGuid:5D23A82E411A5CFDF61C6285B0703174 Parent:00000000000000000000000000000000
   |      - Guid:86CD868B4D294F95E7F12283BB07ED1F Class:LandscapeStreamingProxy Name:LandscapeStreamingProxy_D7T4VF4LBP34PHV9XOEVM5TIG_1_6_0_0 SpatiallyLoaded:true Bounds:IsValid=true, Min=(X=50400.000 Y=-100800.000 Z=5939.844), Max=(X=75600.000 Y=-75600.000 Z=10986.719) RuntimeGrid:None EditorOnly:false LevelBoundsRelevant:true HLODRelevant:true FolderPath:None FolderGuid:00000000000000000000000000000000 Parent:00000000000000000000000000000000
   |      - Guid:87184C7F45B16AFDB24868B24172272E Class:LandscapeStreamingProxy Name:LandscapeStreamingProxy_D7T4VF4LBP34PHV9XOEVM5TIG_1_6_2_0 SpatiallyLoaded:true Bounds:IsValid=true, Min=(X=50400.000 Y=-50400.000 Z=3310.156), Max=(X=75600.000 Y=-25200.000 Z=11691.406) RuntimeGrid:None EditorOnly:false LevelBoundsRelevant:true HLODRelevant:true FolderPath:None FolderGuid:00000000000000000000000000000000 Parent:00000000000000000000000000000000
   |      - Guid:8CD203124A63B3DE74830F8C16C73947 Class:WorldPartitionHLOD Name:HLOD0_Instancing_00000000837d3c27 SpatiallyLoaded:false Bounds:IsValid=true, Min=(X=-51200.000 Y=51200.000 Z=-100.000), Max=(X=0.000 Y=102400.000 Z=14989.844) RuntimeGrid:None EditorOnly:false LevelBoundsRelevant:true HLODRelevant:true FolderPath:HLOD/HLOD0 FolderGuid:5D23A82E411A5CFDF61C6285B0703174 Parent:00000000000000000000000000000000
   |      - Guid:8DE603264C3E497D33EABCA47DEF582C Class:LandscapeStreamingProxy Name:LandscapeStreamingProxy_D7T4VF4LBP34PHV9XOEVM5TIG_1_1_1_0 SpatiallyLoaded:true Bounds:IsValid=true, Min=(X=-75600.000 Y=-75600.000 Z=5113.281), Max=(X=-50400.000 Y=-50400.000 Z=7863.281) RuntimeGrid:None EditorOnly:false LevelBoundsRelevant:true HLODRelevant:true FolderPath:None FolderGuid:00000000000000000000000000000000 Parent:00000000000000000000000000000000
   |      - Guid:8E5BA17B4086F5FC0291D1A92F7F73F4 Class:LandscapeStreamingProxy Name:LandscapeStreamingProxy_D7T4VF4LBP34PHV9XOEVM5TIG_1_5_7_0 SpatiallyLoaded:true Bounds:IsValid=true, Min=(X=25200.000 Y=75600.000 Z=2653.906), Max=(X=50400.000 Y=100800.000 Z=9796.094) RuntimeGrid:None EditorOnly:false LevelBoundsRelevant:true HLODRelevant:true FolderPath:None FolderGuid:00000000000000000000000000000000 Parent:00000000000000000000000000000000
   |      - Guid:8F0C78FE4D46BC07F60A91A87475E7E8 Class:LandscapeStreamingProxy Name:LandscapeStreamingProxy_D7T4VF4LBP34PHV9XOEVM5TIG_1_4_1_0 SpatiallyLoaded:true Bounds:IsValid=true, Min=(X=0.000 Y=-75600.000 Z=106.250), Max=(X=25200.000 Y=-50400.000 Z=6735.156) RuntimeGrid:None EditorOnly:false LevelBoundsRelevant:true HLODRelevant:true FolderPath:None FolderGuid:00000000000000000000000000000000 Parent:00000000000000000000000000000000
   |      - Guid:92048E484921BF66C34182B15D54343E Class:WorldPartitionHLOD Name:HLOD0_Instancing_00000000ffcbbfa1 SpatiallyLoaded:false Bounds:IsValid=true, Min=(X=51200.000 Y=-51200.000 Z=-100.000), Max=(X=102400.000 Y=0.000 Z=14989.844) RuntimeGrid:None EditorOnly:false LevelBoundsRelevant:true HLODRelevant:true FolderPath:HLOD/HLOD0 FolderGuid:5D23A82E411A5CFDF61C6285B0703174 Parent:00000000000000000000000000000000
   |      - Guid:939A2F334C34B3E545C41391CBDF2D38 Class:LandscapeStreamingProxy Name:LandscapeStreamingProxy_D7T4VF4LBP34PHV9XOEVM5TIG_1_5_0_0 SpatiallyLoaded:true Bounds:IsValid=true, Min=(X=25200.000 Y=-100800.000 Z=4950.781), Max=(X=50400.000 Y=-75600.000 Z=8967.969) RuntimeGrid:None EditorOnly:false LevelBoundsRelevant:true HLODRelevant:true FolderPath:None FolderGuid:00000000000000000000000000000000 Parent:00000000000000000000000000000000
   |      - Guid:940D9F2841D87F2C369296A63C92C2AF Class:WorldPartitionHLOD Name:HLOD0_Instancing_0000000083c582a7 SpatiallyLoaded:false Bounds:IsValid=true, Min=(X=0.000 Y=-51200.000 Z=-100.000), Max=(X=51200.000 Y=0.000 Z=14989.844) RuntimeGrid:None EditorOnly:false LevelBoundsRelevant:true HLODRelevant:true FolderPath:HLOD/HLOD0 FolderGuid:5D23A82E411A5CFDF61C6285B0703174 Parent:00000000000000000000000000000000
   |      - Guid:986A09ED4961A78E34EE1981B2281B28 Class:LandscapeStreamingProxy Name:LandscapeStreamingProxy_D7T4VF4LBP34PHV9XOEVM5TIG_1_6_4_0 SpatiallyLoaded:true Bounds:IsValid=true, Min=(X=50400.000 Y=0.000 Z=893.750), Max=(X=75600.000 Y=25200.000 Z=7369.531) RuntimeGrid:None EditorOnly:false LevelBoundsRelevant:true HLODRelevant:true FolderPath:None FolderGuid:00000000000000000000000000000000 Parent:00000000000000000000000000000000
   |      - Guid:988456E1464ED6902163CB8467235B9D Class:LandscapeStreamingProxy Name:LandscapeStreamingProxy_D7T4VF4LBP34PHV9XOEVM5TIG_1_0_7_0 SpatiallyLoaded:true Bounds:IsValid=true, Min=(X=-100800.000 Y=75600.000 Z=8263.281), Max=(X=-75600.000 Y=100800.000 Z=13605.469) RuntimeGrid:None EditorOnly:false LevelBoundsRelevant:true HLODRelevant:true FolderPath:None FolderGuid:00000000000000000000000000000000 Parent:00000000000000000000000000000000
   |      - Guid:98887E404893493841EE36AC67CB4D3D Class:WorldPartitionHLOD Name:HLOD0_Instancing_00000000dea15624 SpatiallyLoaded:false Bounds:IsValid=true, Min=(X=51200.000 Y=0.000 Z=-100.000), Max=(X=102400.000 Y=51200.000 Z=14989.844) RuntimeGrid:None EditorOnly:false LevelBoundsRelevant:true HLODRelevant:true FolderPath:HLOD/HLOD0 FolderGuid:5D23A82E411A5CFDF61C6285B0703174 Parent:00000000000000000000000000000000
   |      - Guid:9AA48BD04CB873661E75B0973B2BF04A Class:LandscapeStreamingProxy Name:LandscapeStreamingProxy_D7T4VF4LBP34PHV9XOEVM5TIG_1_3_5_0 SpatiallyLoaded:true Bounds:IsValid=true, Min=(X=-25200.000 Y=25200.000 Z=-0.781), Max=(X=0.000 Y=50400.000 Z=1284.375) RuntimeGrid:None EditorOnly:false LevelBoundsRelevant:true HLODRelevant:true FolderPath:None FolderGuid:00000000000000000000000000000000 Parent:00000000000000000000000000000000
   |      - Guid:9C73710A434FD4583E950EACD9707470 Class:LandscapeStreamingProxy Name:LandscapeStreamingProxy_D7T4VF4LBP34PHV9XOEVM5TIG_1_7_2_0 SpatiallyLoaded:true Bounds:IsValid=true, Min=(X=75600.000 Y=-50400.000 Z=9125.781), Max=(X=100800.000 Y=-25200.000 Z=12972.656) RuntimeGrid:None EditorOnly:false LevelBoundsRelevant:true HLODRelevant:true FolderPath:None FolderGuid:00000000000000000000000000000000 Parent:00000000000000000000000000000000
   |      - Guid:9CBBDFD8486812AAE8770CB093DB7460 Class:LandscapeStreamingProxy Name:LandscapeStreamingProxy_D7T4VF4LBP34PHV9XOEVM5TIG_1_3_4_0 SpatiallyLoaded:true Bounds:IsValid=true, Min=(X=-25200.000 Y=0.000 Z=-100.000), Max=(X=0.000 Y=25200.000 Z=100.000) RuntimeGrid:None EditorOnly:false LevelBoundsRelevant:true HLODRelevant:true FolderPath:None FolderGuid:00000000000000000000000000000000 Parent:00000000000000000000000000000000
   |      - Guid:9F1FD8B14EFA2FFE8955F0893F732321 Class:LandscapeStreamingProxy Name:LandscapeStreamingProxy_D7T4VF4LBP34PHV9XOEVM5TIG_1_4_2_0 SpatiallyLoaded:true Bounds:IsValid=true, Min=(X=0.000 Y=-50400.000 Z=0.000), Max=(X=25200.000 Y=-25200.000 Z=1064.062) RuntimeGrid:None EditorOnly:false LevelBoundsRelevant:true HLODRelevant:true FolderPath:None FolderGuid:00000000000000000000000000000000 Parent:00000000000000000000000000000000
   |      - Guid:A236CB88490C3A06E1F2C0AD5F6D1FAE Class:WorldPartitionHLOD Name:HLOD0_Instancing_00000000d3a4e6c0 SpatiallyLoaded:false Bounds:IsValid=true, Min=(X=-102400.000 Y=51200.000 Z=-100.000), Max=(X=-51200.000 Y=102400.000 Z=14989.844) RuntimeGrid:None EditorOnly:false LevelBoundsRelevant:true HLODRelevant:true FolderPath:HLOD/HLOD0 FolderGuid:5D23A82E411A5CFDF61C6285B0703174 Parent:00000000000000000000000000000000
   |      - Guid:A35DA04D499AEDD6011C6B8293B4BE2B Class:LandscapeStreamingProxy Name:LandscapeStreamingProxy_D7T4VF4LBP34PHV9XOEVM5TIG_1_1_7_0 SpatiallyLoaded:true Bounds:IsValid=true, Min=(X=-75600.000 Y=75600.000 Z=6619.531), Max=(X=-50400.000 Y=100800.000 Z=13197.656) RuntimeGrid:None EditorOnly:false LevelBoundsRelevant:true HLODRelevant:true FolderPath:None FolderGuid:00000000000000000000000000000000 Parent:00000000000000000000000000000000
   |      - Guid:A6E4B2F64282645AA7756082104E8B9D Class:LandscapeStreamingProxy Name:LandscapeStreamingProxy_D7T4VF4LBP34PHV9XOEVM5TIG_1_3_7_0 SpatiallyLoaded:true Bounds:IsValid=true, Min=(X=-25200.000 Y=75600.000 Z=3127.344), Max=(X=0.000 Y=100800.000 Z=10647.656) RuntimeGrid:None EditorOnly:false LevelBoundsRelevant:true HLODRelevant:true FolderPath:None FolderGuid:00000000000000000000000000000000 Parent:00000000000000000000000000000000
   |      - Guid:A882235E449D71AC064105B4EA3F9518 Class:LandscapeStreamingProxy Name:LandscapeStreamingProxy_D7T4VF4LBP34PHV9XOEVM5TIG_1_2_5_0 SpatiallyLoaded:true Bounds:IsValid=true, Min=(X=-50400.000 Y=25200.000 Z=0.000), Max=(X=-25200.000 Y=50400.000 Z=3609.375) RuntimeGrid:None EditorOnly:false LevelBoundsRelevant:true HLODRelevant:true FolderPath:None FolderGuid:00000000000000000000000000000000 Parent:00000000000000000000000000000000
   |      - Guid:AAAC6B5742760A58C2206DB37E44683C Class:DirectionalLight Name:DirectionalLight_UAID_A85E45CFE40401D200_1470382761 SpatiallyLoaded:false Bounds:IsValid=true, Min=(X=-1048576.000 Y=-1048576.000 Z=-1048576.000), Max=(X=1048576.000 Y=1048576.000 Z=1048576.000) RuntimeGrid:None EditorOnly:false LevelBoundsRelevant:false HLODRelevant:false FolderPath:Lighting FolderGuid:B7E9BD5B45A652654791988DEF54CCEB Parent:00000000000000000000000000000000
   |      - Guid:AE565297405B1809622B45ADC2750875 Class:LandscapeStreamingProxy Name:LandscapeStreamingProxy_D7T4VF4LBP34PHV9XOEVM5TIG_1_5_4_0 SpatiallyLoaded:true Bounds:IsValid=true, Min=(X=25200.000 Y=0.000 Z=0.000), Max=(X=50400.000 Y=25200.000 Z=2303.125) RuntimeGrid:None EditorOnly:false LevelBoundsRelevant:true HLODRelevant:true FolderPath:None FolderGuid:00000000000000000000000000000000 Parent:00000000000000000000000000000000
   |      - Guid:AFFD43EF4FDE6F1DE9462891A98273A6 Class:WorldPartitionHLOD Name:HLOD0_Instancing_0000000053252892 SpatiallyLoaded:false Bounds:IsValid=true, Min=(X=51200.000 Y=51200.000 Z=-100.000), Max=(X=102400.000 Y=102400.000 Z=14989.844) RuntimeGrid:None EditorOnly:false LevelBoundsRelevant:true HLODRelevant:true FolderPath:HLOD/HLOD0 FolderGuid:5D23A82E411A5CFDF61C6285B0703174 Parent:00000000000000000000000000000000
   |      - Guid:B0E3D56F46177253EEFE85A57AC65398 Class:LandscapeStreamingProxy Name:LandscapeStreamingProxy_D7T4VF4LBP34PHV9XOEVM5TIG_1_6_3_0 SpatiallyLoaded:true Bounds:IsValid=true, Min=(X=50400.000 Y=-25200.000 Z=870.312), Max=(X=75600.000 Y=0.000 Z=9125.781) RuntimeGrid:None EditorOnly:false LevelBoundsRelevant:true HLODRelevant:true FolderPath:None FolderGuid:00000000000000000000000000000000 Parent:00000000000000000000000000000000
   |      - Guid:B604844948BFF24FCAEFC18CD69A7FF7 Class:LandscapeStreamingProxy Name:LandscapeStreamingProxy_D7T4VF4LBP34PHV9XOEVM5TIG_1_7_1_0 SpatiallyLoaded:true Bounds:IsValid=true, Min=(X=75600.000 Y=-75600.000 Z=8610.156), Max=(X=100800.000 Y=-50400.000 Z=11772.656) RuntimeGrid:None EditorOnly:false LevelBoundsRelevant:true HLODRelevant:true FolderPath:None FolderGuid:00000000000000000000000000000000 Parent:00000000000000000000000000000000
   |      - Guid:B6C3DAF747D776D42CBB8BADECF57A47 Class:LandscapeStreamingProxy Name:LandscapeStreamingProxy_D7T4VF4LBP34PHV9XOEVM5TIG_1_5_1_0 SpatiallyLoaded:true Bounds:IsValid=true, Min=(X=25200.000 Y=-75600.000 Z=1064.062), Max=(X=50400.000 Y=-50400.000 Z=6511.719) RuntimeGrid:None EditorOnly:false LevelBoundsRelevant:true HLODRelevant:true FolderPath:None FolderGuid:00000000000000000000000000000000 Parent:00000000000000000000000000000000
   |      - Guid:B865D61B473CDD196F56BDA8F1637BEE Class:LandscapeStreamingProxy Name:LandscapeStreamingProxy_D7T4VF4LBP34PHV9XOEVM5TIG_1_5_6_0 SpatiallyLoaded:true Bounds:IsValid=true, Min=(X=25200.000 Y=50400.000 Z=1202.344), Max=(X=50400.000 Y=75600.000 Z=8677.344) RuntimeGrid:None EditorOnly:false LevelBoundsRelevant:true HLODRelevant:true FolderPath:None FolderGuid:00000000000000000000000000000000 Parent:00000000000000000000000000000000
   |      - Guid:B9E92F9C437526A88CEB59B2694F0297 Class:LandscapeStreamingProxy Name:LandscapeStreamingProxy_D7T4VF4LBP34PHV9XOEVM5TIG_1_2_6_0 SpatiallyLoaded:true Bounds:IsValid=true, Min=(X=-50400.000 Y=50400.000 Z=1284.375), Max=(X=-25200.000 Y=75600.000 Z=7450.781) RuntimeGrid:None EditorOnly:false LevelBoundsRelevant:true HLODRelevant:true FolderPath:None FolderGuid:00000000000000000000000000000000 Parent:00000000000000000000000000000000
   |      - Guid:C05781A44D7C770E1C0960A3CA1C133F Class:LandscapeStreamingProxy Name:LandscapeStreamingProxy_D7T4VF4LBP34PHV9XOEVM5TIG_1_4_5_0 SpatiallyLoaded:true Bounds:IsValid=true, Min=(X=0.000 Y=25200.000 Z=-0.781), Max=(X=25200.000 Y=50400.000 Z=1202.344) RuntimeGrid:None EditorOnly:false LevelBoundsRelevant:true HLODRelevant:true FolderPath:None FolderGuid:00000000000000000000000000000000 Parent:00000000000000000000000000000000
   |      - Guid:C08A14624000EB194F9392A655EE0F44 Class:LandscapeStreamingProxy Name:LandscapeStreamingProxy_D7T4VF4LBP34PHV9XOEVM5TIG_1_0_0_0 SpatiallyLoaded:true Bounds:IsValid=true, Min=(X=-100800.000 Y=-100800.000 Z=7269.531), Max=(X=-75600.000 Y=-75600.000 Z=12157.031) RuntimeGrid:None EditorOnly:false LevelBoundsRelevant:true HLODRelevant:true FolderPath:None FolderGuid:00000000000000000000000000000000 Parent:00000000000000000000000000000000
   |      - Guid:C56C132644701862CBD638A5DD4778F1 Class:LandscapeStreamingProxy Name:LandscapeStreamingProxy_D7T4VF4LBP34PHV9XOEVM5TIG_1_3_1_0 SpatiallyLoaded:true Bounds:IsValid=true, Min=(X=-25200.000 Y=-75600.000 Z=142.188), Max=(X=0.000 Y=-50400.000 Z=8805.469) RuntimeGrid:None EditorOnly:false LevelBoundsRelevant:true HLODRelevant:true FolderPath:None FolderGuid:00000000000000000000000000000000 Parent:00000000000000000000000000000000
   |      - Guid:C5BE7A844D821610BF68FA846185D941 Class:LandscapeStreamingProxy Name:LandscapeStreamingProxy_D7T4VF4LBP34PHV9XOEVM5TIG_1_4_6_0 SpatiallyLoaded:true Bounds:IsValid=true, Min=(X=0.000 Y=50400.000 Z=100.000), Max=(X=25200.000 Y=75600.000 Z=3294.531) RuntimeGrid:None EditorOnly:false LevelBoundsRelevant:true HLODRelevant:true FolderPath:None FolderGuid:00000000000000000000000000000000 Parent:00000000000000000000000000000000
   |      - Guid:CC3578F64F1C10BFC08DBD9333DF1932 Class:WorldPartitionHLOD Name:HLOD0_Instancing_000000002e9978b4 SpatiallyLoaded:false Bounds:IsValid=true, Min=(X=-51200.000 Y=0.000 Z=-100.000), Max=(X=0.000 Y=51200.000 Z=14989.844) RuntimeGrid:None EditorOnly:false LevelBoundsRelevant:true HLODRelevant:true FolderPath:HLOD/HLOD0 FolderGuid:5D23A82E411A5CFDF61C6285B0703174 Parent:00000000000000000000000000000000
   |      - Guid:D3FB7383421AAEFD3DB6F8B1E415A9FE Class:ExponentialHeightFog Name:ExponentialHeightFog_UAID_A85E45CFE40401D200_1470382763 SpatiallyLoaded:false Bounds:IsValid=true, Min=(X=-5600.000 Y=-50.000 Z=-6850.000), Max=(X=-5600.000 Y=-50.000 Z=-6850.000) RuntimeGrid:None EditorOnly:false LevelBoundsRelevant:false HLODRelevant:false FolderPath:Lighting FolderGuid:B7E9BD5B45A652654791988DEF54CCEB Parent:00000000000000000000000000000000
   |      - Guid:D7EBD1B64A395FA249930BA618DBFE6D Class:LandscapeStreamingProxy Name:LandscapeStreamingProxy_D7T4VF4LBP34PHV9XOEVM5TIG_1_0_5_0 SpatiallyLoaded:true Bounds:IsValid=true, Min=(X=-100800.000 Y=25200.000 Z=3900.781), Max=(X=-75600.000 Y=50400.000 Z=10327.344) RuntimeGrid:None EditorOnly:false LevelBoundsRelevant:true HLODRelevant:true FolderPath:None FolderGuid:00000000000000000000000000000000 Parent:00000000000000000000000000000000
   |      - Guid:DC43A67244732C412AFFA1B3074A05AE Class:LandscapeStreamingProxy Name:LandscapeStreamingProxy_D7T4VF4LBP34PHV9XOEVM5TIG_1_7_4_0 SpatiallyLoaded:true Bounds:IsValid=true, Min=(X=75600.000 Y=0.000 Z=5091.406), Max=(X=100800.000 Y=25200.000 Z=9228.906) RuntimeGrid:None EditorOnly:false LevelBoundsRelevant:true HLODRelevant:true FolderPath:None FolderGuid:00000000000000000000000000000000 Parent:00000000000000000000000000000000
   |      - Guid:DD9698CB479A7FA921FAEE968A694145 Class:WorldPartitionHLOD Name:HLOD0_Instancing_00000000596e8a41 SpatiallyLoaded:false Bounds:IsValid=true, Min=(X=-102400.000 Y=-102400.000 Z=-100.000), Max=(X=0.000 Y=0.000 Z=14989.844) RuntimeGrid:None EditorOnly:false LevelBoundsRelevant:true HLODRelevant:true FolderPath:HLOD/HLOD0 FolderGuid:5D23A82E411A5CFDF61C6285B0703174 Parent:00000000000000000000000000000000
   |      - Guid:E6C4C89747E65FCDCCFD648F081F47C2 Class:LandscapeStreamingProxy Name:LandscapeStreamingProxy_D7T4VF4LBP34PHV9XOEVM5TIG_1_3_3_0 SpatiallyLoaded:true Bounds:IsValid=true, Min=(X=-25200.000 Y=-25200.000 Z=-100.000), Max=(X=0.000 Y=0.000 Z=100.000) RuntimeGrid:None EditorOnly:false LevelBoundsRelevant:true HLODRelevant:true FolderPath:None FolderGuid:00000000000000000000000000000000 Parent:00000000000000000000000000000000
   |      - Guid:F1A541DF4F1C7787D75FF7A07D0F99F9 Class:WorldPartitionHLOD Name:HLOD0_Instancing_000000004e144344 SpatiallyLoaded:false Bounds:IsValid=true, Min=(X=0.000 Y=0.000 Z=-100.000), Max=(X=102400.000 Y=102400.000 Z=14989.844) RuntimeGrid:None EditorOnly:false LevelBoundsRelevant:true HLODRelevant:true FolderPath:HLOD/HLOD0 FolderGuid:5D23A82E411A5CFDF61C6285B0703174 Parent:00000000000000000000000000000000
   |      - Guid:F323F6294077B31ECF3A50AE7598DEBB Class:WorldPartitionHLOD Name:HLOD0_Instancing_0000000010d5f002 SpatiallyLoaded:false Bounds:IsValid=true, Min=(X=0.000 Y=-102400.000 Z=-100.000), Max=(X=51200.000 Y=-51200.000 Z=14989.844) RuntimeGrid:None EditorOnly:false LevelBoundsRelevant:true HLODRelevant:true FolderPath:HLOD/HLOD0 FolderGuid:5D23A82E411A5CFDF61C6285B0703174 Parent:00000000000000000000000000000000
   |      - Guid:F32920FF429D371621DDE0BD86782E6D Class:WorldPartitionHLOD Name:HLOD0_Instancing_00000000d560b8ee SpatiallyLoaded:false Bounds:IsValid=true, Min=(X=0.000 Y=51200.000 Z=-100.000), Max=(X=51200.000 Y=102400.000 Z=14989.844) RuntimeGrid:None EditorOnly:false LevelBoundsRelevant:true HLODRelevant:true FolderPath:HLOD/HLOD0 FolderGuid:5D23A82E411A5CFDF61C6285B0703174 Parent:00000000000000000000000000000000
   |      - Guid:F698883443058A9F883FB7852DDEE8F1 Class:LandscapeStreamingProxy Name:LandscapeStreamingProxy_D7T4VF4LBP34PHV9XOEVM5TIG_1_6_6_0 SpatiallyLoaded:true Bounds:IsValid=true, Min=(X=50400.000 Y=50400.000 Z=5341.406), Max=(X=75600.000 Y=75600.000 Z=10853.906) RuntimeGrid:None EditorOnly:false LevelBoundsRelevant:true HLODRelevant:true FolderPath:None FolderGuid:00000000000000000000000000000000 Parent:00000000000000000000000000000000
   |      - Guid:F6AE1D8A4F4C68FDB36033963883B3D4 Class:WorldPartitionHLOD Name:HLOD0_Instancing_00000000adcdef81 SpatiallyLoaded:false Bounds:IsValid=true, Min=(X=-102400.000 Y=-102400.000 Z=-100.000), Max=(X=-51200.000 Y=-51200.000 Z=14989.844) RuntimeGrid:None EditorOnly:false LevelBoundsRelevant:true HLODRelevant:true FolderPath:HLOD/HLOD0 FolderGuid:5D23A82E411A5CFDF61C6285B0703174 Parent:00000000000000000000000000000000
   |      - Guid:F947F18B49858105B55E08A21E067F09 Class:LandscapeStreamingProxy Name:LandscapeStreamingProxy_D7T4VF4LBP34PHV9XOEVM5TIG_1_5_5_0 SpatiallyLoaded:true Bounds:IsValid=true, Min=(X=25200.000 Y=25200.000 Z=0.000), Max=(X=50400.000 Y=50400.000 Z=5888.281) RuntimeGrid:None EditorOnly:false LevelBoundsRelevant:true HLODRelevant:true FolderPath:None FolderGuid:00000000000000000000000000000000 Parent:00000000000000000000000000000000
   |      - Guid:FC95DF384AD9CF7A5647699C01E254A2 Class:LandscapeStreamingProxy Name:LandscapeStreamingProxy_D7T4VF4LBP34PHV9XOEVM5TIG_1_1_3_0 SpatiallyLoaded:true Bounds:IsValid=true, Min=(X=-75600.000 Y=-25200.000 Z=17.188), Max=(X=-50400.000 Y=0.000 Z=6477.344) RuntimeGrid:None EditorOnly:false LevelBoundsRelevant:true HLODRelevant:true FolderPath:None FolderGuid:00000000000000000000000000000000 Parent:00000000000000000000000000000000
   |      - Guid:FDBEEF8F4B1150FA7A6CBD8A8376C41D Class:WorldPartitionHLOD Name:HLOD0_Instancing_00000000dfad0108 SpatiallyLoaded:false Bounds:IsValid=true, Min=(X=51200.000 Y=-102400.000 Z=-100.000), Max=(X=102400.000 Y=-51200.000 Z=14989.844) RuntimeGrid:None EditorOnly:false LevelBoundsRelevant:true HLODRelevant:true FolderPath:HLOD/HLOD0 FolderGuid:5D23A82E411A5CFDF61C6285B0703174 Parent:00000000000000000000000000000000
   |      - Guid:FE635E06438230491F5EA2AE5A1DB0AC Class:LandscapeStreamingProxy Name:LandscapeStreamingProxy_D7T4VF4LBP34PHV9XOEVM5TIG_1_3_0_0 SpatiallyLoaded:true Bounds:IsValid=true, Min=(X=-25200.000 Y=-100800.000 Z=6453.906), Max=(X=0.000 Y=-75600.000 Z=11442.969) RuntimeGrid:None EditorOnly:false LevelBoundsRelevant:true HLODRelevant:true FolderPath:None FolderGuid:00000000000000000000000000000000 Parent:00000000000000000000000000000000
